{
"ADAL": {"ADAR": 3, "ADFL": 5, "ASHL": 2, "AVDR": 2, "OLQVL": 4, "PVQL": 4},
"ADAR": {"ADAL": 3, "ADFR": 4, "ASHR": 3, "AVDL": 3, "PVQR": 2},
"ADEL": {"AINL": 2, "IL2L": 2, "RIGR": 1, "RMDDR": 1, "RMER": 1, "SIBDL": 1, "SIBVL": 1},
"ADER": {"AINR": 4, "ALNR": 2, "AVJR": 1, "AVKL": 4, "FLPR": 4, "PVM": 1, "PVQR": 2},
"ADFL": {"ADAL": 5, "AFDL": 3, "AIZL": 1, "ASHL": 1, "AWCL": 1, "GLRVR": 1, "RIAL": 1, "RIPL": 2, "URBL": 1, "exc_gl": 1},
"ADFR": {"ADAR": 4, "AFDR": 5, "AIAR": 4, "ASGR": 1, "AWAR": 3, "AWBR": 1, "RIH": 1, "SMBVR": 1, "SMDVR": 2},
"ADLL": {"ADLR": 6, "AVDR": 2, "AWAL": 1, "RMGL": 3},
"ADLR": {"ADLL": 6, "ASGR": 1, "ASKR": 1},
"AFDL": {"ADFL": 3, "AFDR": 1, "AIBL": 2, "AIYL": 2, "ASEL": 6, "AVEL": 1, "URBL": 9},
"AFDR": {"ADFR": 5, "AFDL": 1, "AIBR": 2, "ASEL": 2, "ASER": 1, "ASHR": 4, "AWCR": 3, "RMDVR": 1, "URBR": 2},
"AIAL": {"AIAR": 7, "AIBL": 5, "ASIL": 1, "ASIR": 2, "ASJL": 1, "ASKL": 2, "AWAL": 1, "AWBL": 1, "AWCR": 1},
"AIAR": {"ADFR": 4, "AIAL": 7, "AIAR": 2, "ASGR": 3, "ASHR": 1, "ASIR": 3, "ASKR": 1, "AWAR": 3, "AWCR": 1},
"AIBL": {"AFDL": 2, "AIAL": 5, "AIZR": 4, "ASKL": 1, "DVC": 2, "FLPL": 1, "RIGR": 3, "RIMR": 1, "RIS": 1, "RIVL": 1, "RMED": 2, "SDQR": 1, "SIADR": 1, "SMDDR": 1},
"AIBR": {"AFDR": 2, "AIZL": 3, "ASKR": 3, "DVC": 9, "PVPL": 2, "PVT": 1, "RICR": 1, "RIGL": 3, "RIML": 2, "RIS": 3, "RIVR": 3, "SIAVL": 1, "SMDDL": 2},
"AIML": {"ASGL": 1, "SIBDR": 2},
"AIMR": {"ASJR": 1, "AVKR": 3, "CEPVR": 1, "SMBVR": 1},
"AINL": {"ADEL": 2, "AINR": 1, "ASGR": 1, "AUAR": 1},
"AINR": {"ADER": 4, "AINL": 1, "ASGL": 1, "ASIL": 1, "AUAL": 3, "BAGL": 3, "RIAL": 2},
"AIYL": {"AFDL": 2, "AIYR": 4, "AVKL": 1, "RIML": 5},
"AIYR": {"AIYL": 4, "ASIR": 1, "AUAR": 1, "RIMR": 3},
"AIZL": {"ADFL": 1, "AIBR": 3, "AIZR": 18, "ASGL": 3, "ASHL": 2, "AWAL": 3, "RIGL": 1, "RIH": 1},
"AIZR": {"AIBL": 4, "AIZL": 18, "ASGR": 1, "ASHR": 6, "AWAR": 3},
"ALA": {"ASJL": 2, "ASKR": 1, "AVER": 3, "CANL": 401, "CANR": 401, "HSNL": 1, "HSNR": 1, "PVDL": 250, "PVDR": 250, "RID": 4, "exc_cell": 100, "exc_gl": 1},
"ALML": {"AVM": 7, "PVR": 3, "RMDDR": 2, "RMGL": 3, "SMBDR": 1},
"ALMR": {"AVDR": 2, "AVM": 16, "PVR": 3, "SDQR": 2},
"ALNL": {"SMBDR": 3, "SMDDR": 2, "SMDVL": 1},
"ALNR": {"ADER": 2, "PVR": 16, "RMGR": 1, "SMDDL": 1},
"AQR": {"AVBL": 3, "AVKL": 7, "AVKR": 2, "PVPL": 41, "PVPR": 61, "RIGR": 3},
"AS1": {"AVEL": 2, "AVER": 1, "FLPR": 1, "VA3": 3, "VA5": 3},
"AS10": {"AVAL": 5, "AVAR": 2, "AVHL": 1, "AVKL": 1, "DA7": 1, "DB7": 1, "VA12": 3},
"AS11": {"AVFL": 2, "AVG": 1, "AVHL": 3, "AVHR": 17, "AVKL": 1, "DA8": 1, "DVA": 1, "DVB": 4, "MVL19": 2, "PDB": 4, "PVPL": 6, "RID": 1, "VB11": 1},
"AS2": {"DA2": 2, "VA3": 2, "VA4": 9},
"AS3": {"AVAR": 1, "DA2": 1, "PVDR": 1},
"AS4": {"DA3": 4},
"AS5": {"AVAR": 3, "AVBR": 2},
"AS6": {"AVAR": 2, "AVBL": 1, "AVBR": 1, "DA5": 5},
"ASEL": {"AFDL": 6, "AFDR": 2, "ASGL": 3, "AWCL": 1, "AWCR": 2},
"ASER": {"AFDR": 1, "ASGR": 3, "AWBR": 1, "PVQR": 1},
"ASGL": {"AIML": 1, "AINR": 1, "AIZL": 3, "ASEL": 3, "AWBL": 1, "SMDDR": 2},
"ASGR": {"ADFR": 1, "ADLR": 1, "AIAR": 3, "AINL": 1, "AIZR": 1, "ASER": 3, "ASIR": 4, "AWCR": 2},
"ASHL": {"ADAL": 2, "ADFL": 1, "AIZL": 2, "ASHR": 7, "ASKL": 18, "RICL": 5, "RMGL": 3},
"ASHR": {"ADAR": 3, "AFDR": 4, "AIAR": 1, "AIZR": 6, "ASHL": 7, "ASKR": 2, "AVAR": 2, "AVER": 1, "AVHL": 2, "RICR": 4, "RMGR": 3},
"ASIL": {"AIAL": 1, "AINR": 1, "ASIR": 3, "CEPshVL": 1},
"ASIR": {"AIAL": 2, "AIAR": 3, "AIYR": 1, "ASGR": 4, "ASIL": 3},
"ASJL": {"AIAL": 1, "ALA": 2, "ASJR": 7, "IL2L": 1, "PVQL": 1, "SMDDR": 1},
"ASJR": {"AIMR": 1, "ASJL": 7, "PVQR": 5},
"ASKL": {"AIAL": 2, "AIBL": 1, "ASHL": 18, "ASKR": 9, "AVHL": 8, "HSNL": 1, "PVQL": 8},
"ASKR": {"ADLR": 1, "AIAR": 1, "AIBR": 3, "ALA": 1, "ASHR": 2, "ASKL": 9, "ASKR": 2, "AVHR": 10, "HSNL": 3, "HSNR": 3, "PVQR": 25, "RMGR": 1},
"AUAL": {"AINR": 3, "AUAR": 2, "AWBL": 4, "AWCL": 1, "RMDVL": 2},
"AUAR": {"AINL": 1, "AIYR": 1, "AUAL": 2, "AWBR": 3, "URXR": 3},
"AVAL": {"AS10": 5, "AVAR": 18, "AVDL": 7, "AVDR": 9, "AVEL": 2, "AVJL": 7, "AVJR": 4, "DA1": 2, "DA2": 7, "DA3": 6, "DA4": 2, "DA5": 2, "DA6": 4, "DA7": 10, "DA8": 8, "DA9": 1, "LUAL": 2, "LUAR": 2, "PHCL": 1, "PHCR": 3, "PLML": 2, "PLMR": 1, "PVCL": 5, "PVCR": 15, "PVDR": 6, "PVNL": 1, "PVPL": 1, "PVPR": 2, "RIMR": 11, "SABD": 7, "SABVR": 8, "URYDL": 2, "URYVR": 2, "VA1": 5, "VA10": 6, "VA11": 2, "VA2": 13, "VA3": 6, "VA4": 6, "VA6": 13, "VA7": 2, "VA8": 2, "VA9": 5, "VB11": 2},
"AVAR": {"AS10": 2, "AS3": 1, "AS5": 3, "AS6": 2, "ASHR": 2, "AVAL": 18, "AVBL": 3, "AVDL": 2, "AVDR": 15, "AVER": 2, "AVJR": 3, "DA1": 9, "DA2": 3, "DA3": 7, "DA4": 2, "DA5": 5, "DA6": 4, "DA8": 5, "DA9": 4, "LUAR": 4, "PHBL": 1, "PHCR": 1, "PLML": 3, "PQR": 17, "PVCL": 10, "PVCR": 22, "PVDL": 4, "PVT": 2, "PVWR": 2, "RIML": 8, "RIMR": 2, "RMDR": 2, "RMDVR": 1, "SAAVR": 1, "SABVL": 15, "SABVR": 2, "SIBDL": 1, "URYDR": 5, "URYVL": 1, "VA1": 7, "VA10": 4, "VA11": 16, "VA12": 3, "VA3": 3, "VA4": 3, "VA5": 5, "VA7": 5, "VA8": 2, "VA9": 5, "VD11": 1},
"AVBL": {"AQR": 3, "AS6": 1, "AVAR": 3, "AVBR": 18, "DB3": 9, "DB4": 4, "DB5": 3, "DB6": 4, "DB7": 13, "DVA": 11, "PVNR": 5, "RIBL": 6, "RIBR": 2, "RID": 2, "SDQR": 1, "SIBVL": 2, "VB1": 1, "VB10": 4, "VB11": 5, "VB2": 14, "VB4": 3, "VB5": 3, "VB6": 3, "VB7": 4, "VB8": 4, "VB9": 4},
"AVBR": {"AS5": 2, "AS6": 1, "AVBL": 18, "DB1": 15, "DB2": 3, "DB3": 2, "DB4": 5, "DB5": 4, "DB6": 4, "DB7": 3, "DVA": 3, "PVNL": 7, "PVNR": 2, "RIBL": 3, "RIBR": 3, "RID": 7, "SIBVL": 4, "SIBVR": 1, "VB11": 6, "VB2": 6, "VB3": 7, "VB4": 5, "VB5": 3, "VB6": 4, "VB7": 3, "VB8": 4, "VB9": 4},
"AVDL": {"ADAR": 3, "AVAL": 7, "AVAR": 2, "AVDR": 6, "AVHL": 2, "AVJR": 1, "AVM": 8, "FLPL": 5, "FLPR": 9, "PLML": 3, "PQR": 2, "PVNR": 1, "PVT": 1, "RIFL": 1, "VA10": 1},
"AVDR": {"ADAL": 2, "ADLL": 2, "ALMR": 2, "AVAL": 9, "AVAR": 15, "AVDL": 6, "AVJL": 6, "FLPR": 2, "PLML": 2, "PQR": 3, "PVCR": 2, "PVNL": 1, "PVNR": 1, "PVWR": 1, "SIADL": 1, "SIBDL": 1},
"AVEL": {"AFDL": 1, "AS1": 2, "AVAL": 2, "AVER": 5, "AVL": 1, "BAGR": 1, "PVPR": 1, "RIML": 10, "RIMR": 7, "RIS": 3, "RMDVR": 2, "RMEV": 1, "RMGL": 2, "SMDVR": 1},
"AVER": {"ALA": 3, "AS1": 1, "ASHR": 1, "AVAR": 2, "AVEL": 5, "AVKR": 1, "DA1": 1, "RIFL": 1, "RIML": 9, "RIMR": 11, "RMDDL": 2, "RMDR": 5, "RMDVL": 1, "RMDVR": 7, "RMEV": 1, "SMDDR": 1},
"AVFL": {"AS11": 2, "AVFR": 31, "AVG": 1, "AVHL": 4, "AVHR": 5, "PVCL": 1, "PVNR": 1, "PVPL": 2, "PVQR": 5, "VC4": 1, "VC5": 1, "VD12": 3},
"AVFR": {"AVFL": 31, "AVHL": 11, "AVHR": 7, "PVPL": 3, "PVQL": 2, "RMGL": 1, "VB1": 1, "VC4": 1, "VC5": 1},
"AVG": {"AS11": 1, "AVFL": 1, "AVHR": 4, "AVJR": 1, "DD6": 1, "DVC": 12, "PHAL": 3, "PHAR": 2, "PHCR": 1, "PVDL": 1, "PVPL": 3, "PVT": 4, "RIFR": 3},
"AVHL": {"AS10": 1, "AS11": 3, "ASHR": 2, "ASKL": 8, "AVDL": 2, "AVFL": 4, "AVFR": 11, "AVHR": 15, "AVJR": 6, "DB7": 3, "LUAL": 1, "PHAL": 1, "PHBL": 1, "PHBR": 10, "PVNL": 1, "PVPR": 6, "VD12": 8},
"AVHR": {"AS11": 17, "ASKR": 10, "AVFL": 5, "AVFR": 7, "AVG": 4, "AVHL": 15, "AVJL": 3, "AVJR": 2, "DA8": 5, "DD6": 1, "DVC": 4, "PHAR": 2, "PHBL": 2, "PHBR": 2, "PVPL": 4, "PVPR": 3, "PVQL": 3, "PVQR": 2, "SIAVL": 1, "VD12": 13},
"AVJL": {"AVAL": 7, "AVDR": 6, "AVHR": 3, "AVJR": 10, "LUAL": 5, "LUAR": 1, "PDB": 2, "PQR": 5, "PVCL": 3, "PVCR": 19, "PVNL": 5, "PVPR": 1, "PVT": 1, "PVWL": 3, "PVWR": 5, "RIFR": 1, "RIS": 15},
"AVJR": {"ADER": 1, "AVAL": 4, "AVAR": 3, "AVDL": 1, "AVG": 1, "AVHL": 6, "AVHR": 2, "AVJL": 10, "LUAR": 1, "PHBL": 1, "PHCR": 1, "PQR": 2, "PVCL": 3, "PVCR": 1, "PVNL": 1, "PVNR": 5},
"AVKL": {"ADER": 4, "AIYL": 1, "AQR": 7, "AS10": 1, "AS11": 1, "AVKR": 9, "AVL": 3, "DVA": 18, "PDER": 1, "PVM": 1, "PVPL": 3, "PVPR": 6, "PVT": 5, "RICR": 2, "RIGL": 2, "RIGR": 1, "SMBDL": 2, "SMBDR": 2, "SMBVL": 6, "SMBVR": 2, "VB10": 1, "VB11": 1},
"AVKR": {"AIMR": 3, "AQR": 2, "AVER": 1, "AVKL": 9, "PDEL": 1, "PVPL": 22, "PVQL": 2, "PVT": 1, "RICL": 4, "RIGR": 2, "RIMR": 1, "SMBDL": 1, "SMBDR": 9, "SMBVR": 6},
"AVL": {"AVEL": 1, "AVKL": 3, "DA9": 4, "DD6": 28, "DVB": 14, "DVC": 22, "PDA": 3, "PVPL": 1, "PVPR": 8, "PVT": 6, "PVWR": 3, "VD11": 1, "VD12": 2, "VD13": 5},
"AVM": {"ALML": 7, "ALMR": 16, "AVDL": 8, "PVR": 4},
"AWAL": {"ADLL": 1, "AIAL": 1, "AIZL": 3, "AWAR": 2},
"AWAR": {"ADFR": 3, "AIAR": 3, "AIZR": 3, "AWAL": 2},
"AWBL": {"AIAL": 1, "ASGL": 1, "AUAL": 4, "AWBR": 3, "RMGL": 1},
"AWBR": {"ADFR": 1, "ASER": 1, "AUAR": 3, "AWBL": 3, "RICL": 4, "RMGR": 1},
"AWCL": {"ADFL": 1, "ASEL": 1, "AUAL": 1},
"AWCR": {"AFDR": 3, "AIAL": 1, "AIAR": 1, "ASEL": 2, "ASGR": 2},
"BAGL": {"AINR": 3, "BAGR": 1, "RIGL": 1, "RIGR": 2, "RIR": 4},
"BAGR": {"AVEL": 1, "BAGL": 1, "RIR": 5},
"BDUL": {"PVNL": 1},
"BDUR": {"HSNL": 1, "HSNR": 1, "PVR": 3},
"CANL": {"ALA": 401, "PVDL": 100, "exc_cell": 200},
"CANR": {"ALA": 401, "PVDR": 100, "exc_cell": 200},
"CEPDL": {"OLQDL": 2},
"CEPDR": {"GLRDL": 2, "GLRDR": 2, "OLQDR": 8},
"CEPVL": {"CEPshVL": 1, "OLQVL": 4, "RIH": 1, "URAVL": 3},
"CEPVR": {"AIMR": 1, "IL2VR": 1, "OLQVR": 1},
"CEPshVL": {"ASIL": 1, "CEPVL": 1},
"CEPshVR": {"MDL01": 4, "MDL02": 5, "MDL06": 2, "MDR07": 3, "RMED": 6},
"DA1": {"AVAL": 2, "AVAR": 9, "AVER": 1, "DA2": 1, "FLPR": 5, "SABVR": 1},
"DA2": {"AS2": 2, "AS3": 1, "AVAL": 7, "AVAR": 3, "DA1": 1, "DA5": 1, "FLPR": 6, "VA1": 9, "VA5": 3},
"DA3": {"AS4": 4, "AVAL": 6, "AVAR": 7, "DA4": 1, "DA5": 1, "FLPR": 16, "PVDL": 1, "VA2": 1, "VA6": 1},
"DA4": {"AVAL": 2, "AVAR": 2, "DA3": 1, "PVCL": 1, "VA3": 1},
"DA5": {"AS6": 5, "AVAL": 2, "AVAR": 5, "DA2": 1, "DA3": 1, "PVDL": 1},
"DA6": {"AVAL": 4, "AVAR": 4, "DB1": 1},
"DA7": {"AS10": 1, "AVAL": 10, "DA8": 1, "PVCL": 1, "PVCR": 3},
"DA8": {"AS11": 1, "AVAL": 8, "AVAR": 5, "AVHR": 5, "DA7": 1, "DA9": 15, "DD6": 2, "DVB": 5, "PDA": 1, "PVCL": 17, "PVQL": 1, "VA10": 2, "VA12": 6},
"DA9": {"AVAL": 1, "AVAR": 4, "AVL": 4, "DA8": 15, "DVA": 3, "PDA": 9, "PHCR": 7, "PVCR": 3, "PVR": 15, "RID": 1, "VA11": 3, "VA12": 1, "VB11": 1, "VD13": 2},
"DB1": {"AVBR": 15, "DA6": 1, "DB2": 5, "DVA": 3, "PVDL": 1, "RID": 2, "VB3": 5},
"DB2": {"AVBR": 3, "DB1": 5, "DB3": 14, "VB1": 1, "VB4": 1},
"DB3": {"AVBL": 9, "AVBR": 2, "DB2": 14, "DB4": 1, "DD3": 1, "PVM": 2, "RID": 1, "VB6": 1},
"DB4": {"AVBL": 4, "AVBR": 5, "DB3": 1, "DB5": 5, "DD3": 1, "VB7": 1},
"DB5": {"AVBL": 3, "AVBR": 4, "DB4": 5, "DB6": 5},
"DB6": {"AVBL": 4, "AVBR": 4, "DB5": 5, "DB7": 5},
"DB7": {"AS10": 1, "AVBL": 13, "AVBR": 3, "AVHL": 3, "DB6": 5, "DVA": 3, "PDB": 2, "PVCL": 8, "PVCR": 2, "PVR": 4, "VA10": 1},
"DD1": {"DD2": 6, "FLPL": 1, "HSNR": 1, "MVL08": 2, "MVR08": 2, "RIFR": 2, "SABVR": 1, "VC1": 1, "VD1": 1, "VD2": 3, "VD3": 4},
"DD2": {"DD1": 6, "DD3": 2, "VD3": 1, "VD4": 2, "VD5": 1},
"DD3": {"DB3": 1, "DB4": 1, "DD2": 2, "DD4": 3, "VD5": 1, "VD6": 2, "VD7": 1},
"DD4": {"DD3": 3, "DD5": 3, "VC2": 2, "VC3": 2, "VD7": 1, "VD8": 2, "VD9": 1},
"DD5": {"DD4": 3, "DD6": 3, "VD10": 2, "VD11": 1, "VD9": 1},
"DD6": {"AVG": 1, "AVHR": 1, "AVL": 28, "DA8": 2, "DD5": 3, "DVB": 3, "DVC": 1, "PDA": 1, "PDB": 2, "PVCL": 1, "PVPL": 2, "PVPR": 9, "PVT": 3, "VA12": 7, "VD11": 3, "VD12": 14, "VD13": 2},
"DVA": {"AS11": 1, "AVBL": 11, "AVBR": 3, "AVKL": 18, "DA9": 3, "DB1": 3, "DB7": 3, "DVC": 1, "PDA": 1, "PDEL": 3, "PDER": 6, "PVCL": 3, "PVCR": 1, "PVM": 1, "PVPL": 1, "PVR": 15, "PVT": 8, "SAAVR": 1, "SDQL": 1, "SDQR": 1, "SIADR": 1, "SIAVR": 1, "VA11": 1},
"DVB": {"AS11": 4, "AVL": 14, "DA8": 5, "DD6": 3, "DVB": 2, "DVC": 15, "PVPL": 4, "PVPR": 4, "PVQR": 1, "PVT": 3, "VD13": 5},
"DVC": {"AIBL": 2, "AIBR": 9, "AVG": 12, "AVHR": 4, "AVL": 22, "DD6": 1, "DVA": 1, "DVB": 15, "PVDR": 1, "PVNR": 1, "PVPL": 20, "PVPR": 34, "PVQR": 7, "PVT": 11, "VC5": 1, "VC6": 1, "VD1": 2, "VD11": 1, "VD13": 1},
"FLPL": {"AIBL": 1, "AVDL": 5, "DD1": 1, "FLPR": 6, "RIH": 1, "SDQL": 1, "SIADR": 1},
"FLPR": {"ADER": 4, "AS1": 1, "AVDL": 9, "AVDR": 2, "DA1": 5, "DA2": 6, "DA3": 16, "FLPL": 6},
"GLRDL": {"CEPDR": 2, "MDL01": 4, "MDL02": 5, "MDL06": 2, "MDR01": 5, "MDR06": 5, "MDR07": 3, "RMED": 9},
"GLRDR": {"CEPDR": 2, "MDR01": 5, "MDR05": 2, "MDR06": 2, "MVL01": 4, "RMED": 9, "RMEL": 10},
"GLRL": {"MDR04": 2, "MDR05": 3, "MVL01": 4, "RIPR": 5, "RMEL": 10, "RMER": 10},
"GLRR": {"MDR04": 2, "MDR05": 3, "RIPR": 5, "RMER": 10, "RMEV": 9},
"GLRVL": {"RMEV": 17},
"GLRVR": {"ADFL": 1, "RMEV": 17},
"HSNL": {"ALA": 1, "ASKL": 1, "ASKR": 3, "BDUR": 1, "HSNR": 1, "PVNR": 2, "PVPL": 1, "RIFL": 1},
"HSNR": {"ALA": 1, "ASKR": 3, "BDUR": 1, "DD1": 1, "HSNL": 1, "PVNR": 2, "PVPR": 1},
"I1L": {"I2L": 2, "M3L": 2, "MCR": 1, "NSML": 3, "RIPL": 2, "pm4VL": 1},
"I1R": {"I2R": 1, "I3": 1, "MCR": 4, "NSMR": 2, "RIPR": 2, "pm3VR": 3, "pm4VR": 2},
"I2L": {"I1L": 2, "I4": 1, "M2L": 1, "e3VL": 2},
"I2R": {"I1R": 1, "M1": 1, "M2R": 1, "MCR": 1, "NSMR": 2, "e3VR": 1},
"I3": {"I1R": 1, "M1": 1, "M2R": 1, "MI": 1, "pm4D": 3, "pm5D": 1},
"I4": {"I2L": 1, "M2R": 2, "M4": 1, "pm5VL": 1},
"I5": {"M2L": 1, "M2R": 1, "M5": 1, "g1AL": 4, "g1AR": 2},
"I6": {"M4": 5},
"IL1DL": {"IL1DR": 3, "IL1L": 2, "RMEV": 1},
"IL1DR": {"IL1DL": 3, "IL1R": 8, "RMDVR": 1, "RMEV": 4},
"IL1L": {"IL1DL": 2, "IL1VL": 8, "RIPL": 1, "RMER": 1, "URBL": 2},
"IL1R": {"IL1DR": 8, "IL1VR": 8},
"IL1VL": {"IL1L": 8, "IL1VR": 11, "RMDDL": 1, "RMED": 3},
"IL1VR": {"IL1R": 8, "IL1VL": 11, "IL2VR": 1, "URAVR": 4},
"IL2DL": {"URADL": 1},
"IL2DR": {"RMED": 1, "URADR": 1},
"IL2L": {"ADEL": 2, "ASJL": 1, "OLLL": 2, "RMDL": 2, "RMER": 2, "RMGL": 5, "URAVL": 1, "URBL": 4, "URXL": 1},
"IL2R": {"RMGR": 1, "URBR": 4, "URXR": 4},
"IL2VL": {"URAVL": 3},
"IL2VR": {"CEPVR": 1, "IL1VR": 1},
"LUAL": {"AVAL": 2, "AVHL": 1, "AVJL": 5, "PLML": 8, "PVCL": 1, "PVNL": 3, "PVR": 6},
"LUAR": {"AVAL": 2, "AVAR": 4, "AVJL": 1, "AVJR": 1, "PLMR": 9, "PVNR": 2, "PVR": 9, "PVT": 4, "PVWL": 3, "PVWR": 3},
"M1": {"I2R": 1, "I3": 1, "pm5D": 3},
"M2L": {"I2L": 1, "I5": 1, "M4": 1, "MCL": 1, "g1AL": 2, "pm4VL": 1, "pm5VL": 1},
"M2R": {"I2R": 1, "I3": 1, "I4": 2, "I5": 1, "M3R": 1, "MCR": 11, "MI": 5, "g1AR": 2, "pm5D": 1},
"M3L": {"I1L": 2, "NSMR": 1, "g1AL": 2, "pm4D": 2, "pm5D": 1, "pm5VL": 1},
"M3R": {"M2R": 1, "NSMR": 2, "g1AR": 5, "pm4VR": 1, "pm5D": 1, "pm5VR": 1},
"M4": {"I4": 1, "I6": 5, "M2L": 1, "M4": 1, "M5": 2, "g1AL": 7, "g1AR": 2, "pm5D": 1, "pm5VL": 1, "pm5VR": 1},
"M5": {"I5": 1, "M4": 2, "M5": 1, "pm5VL": 2, "pm6VL": 2, "pm6VR": 2},
"MCL": {"M2L": 1},
"MCR": {"I1L": 1, "I1R": 4, "I2R": 1, "M2R": 11},
"MDL01": {"CEPshVR": 4, "GLRDL": 4, "MDL02": 15, "MDL03": 15},
"MDL02": {"CEPshVR": 5, "GLRDL": 5, "MDL01": 15, "MDL03": 15},
"MDL03": {"MDL01": 15, "MDL02": 15, "MDL04": 15},
"MDL04": {"MDL03": 15, "MDL05": 15},
"MDL05": {"MDL04": 15, "MDL06": 15},
"MDL06": {"CEPshVR": 2, "GLRDL": 2, "MDL05": 15, "MDL07": 15},
"MDL07": {"MDL06": 15, "MDL08": 15, "hmc": 153},
"MDL08": {"MDL07": 15, "MDL09": 15, "hmc": 244},
"MDL09": {"MDL08": 15, "MDL10": 15, "VD2": 1, "hmc": 4},
"MDL10": {"MDL09": 15, "MDL11": 15},
"MDL11": {"MDL10": 15, "MDL12": 15},
"MDL12": {"MDL11": 15, "MDL13": 15},
"MDL13": {"MDL12": 15, "MDL14": 15},
"MDL14": {"MDL13": 15, "MDL15": 15},
"MDL15": {"MDL14": 15, "MDL16": 15},
"MDL16": {"MDL15": 15, "MDL17": 15},
"MDL17": {"MDL16": 15, "MDL18": 15},
"MDL18": {"MDL17": 15, "MDL19": 15},
"MDL19": {"MDL18": 15, "MDL20": 15},
"MDL20": {"MDL19": 15, "MDL21": 15},
"MDL21": {"MDL20": 15, "MDL22": 15},
"MDL22": {"MDL21": 15, "MDL23": 15},
"MDL23": {"MDL22": 15, "MDL24": 15},
"MDL24": {"MDL23": 15},
"MDR01": {"GLRDL": 5, "GLRDR": 5, "MDR02": 15, "MDR03": 15},
"MDR02": {"MDR01": 15, "MDR03": 15},
"MDR03": {"MDR01": 15, "MDR02": 15, "MDR04": 15},
"MDR04": {"GLRL": 2, "GLRR": 2, "MDR03": 15, "MDR05": 15},
"MDR05": {"GLRDR": 2, "GLRL": 3, "GLRR": 3, "MDR04": 15, "MDR06": 15},
"MDR06": {"GLRDL": 5, "GLRDR": 2, "MDR05": 15, "MDR07": 15},
"MDR07": {"CEPshVR": 3, "GLRDL": 3, "MDR06": 15, "MDR08": 15, "hmc": 123},
"MDR08": {"MDR07": 15, "MDR09": 15, "hmc": 174},
"MDR09": {"MDR08": 15, "MDR10": 15},
"MDR10": {"MDR09": 15, "MDR11": 15},
"MDR11": {"MDR10": 15, "MDR12": 15},
"MDR12": {"MDR11": 15, "MDR13": 15},
"MDR13": {"MDR12": 15, "MDR14": 15},
"MDR14": {"MDR13": 15, "MDR15": 15},
"MDR15": {"MDR14": 15, "MDR16": 15},
"MDR16": {"MDR15": 15, "MDR17": 15},
"MDR17": {"MDR16": 15, "MDR18": 15},
"MDR18": {"MDR17": 15, "MDR19": 15},
"MDR19": {"MDR18": 15, "MDR20": 15},
"MDR20": {"MDR19": 15, "MDR21": 15},
"MDR21": {"MDR20": 15, "MDR22": 15},
"MDR22": {"MDR21": 15, "MDR23": 15},
"MDR23": {"MDR22": 15, "MDR24": 15},
"MDR24": {"MDR23": 15},
"MI": {"I3": 1, "M2R": 5, "pm4D": 3},
"MVL01": {"GLRDR": 4, "GLRL": 4, "MVL02": 15, "MVL03": 15},
"MVL02": {"MVL01": 15, "MVL03": 15},
"MVL03": {"MVL01": 15, "MVL02": 15, "MVL04": 15},
"MVL04": {"MVL03": 15, "MVL05": 15},
"MVL05": {"MVL04": 15, "MVL06": 15, "hmc": 98},
"MVL06": {"MVL05": 15, "MVL07": 15},
"MVL07": {"MVL06": 15, "MVL08": 15, "hmc": 68},
"MVL08": {"DD1": 2, "MVL07": 15, "MVL09": 15, "hmc": 19},
"MVL09": {"MVL08": 15, "MVL10": 15, "MVR08": 2},
"MVL10": {"MVL09": 15, "MVL11": 15},
"MVL11": {"MVL10": 15, "MVL12": 15},
"MVL12": {"MVL11": 15, "MVL13": 15},
"MVL13": {"MVL12": 15, "MVL14": 15},
"MVL14": {"MVL13": 15, "MVL15": 15},
"MVL15": {"MVL14": 15, "MVL16": 15},
"MVL16": {"MVL15": 15, "MVL17": 15},
"MVL17": {"MVL16": 15, "MVL18": 15},
"MVL18": {"MVL17": 15, "MVL19": 15},
"MVL19": {"AS11": 2, "MVL18": 15, "MVL20": 15, "PVPL": 2},
"MVL20": {"MVL19": 15, "MVL21": 15},
"MVL21": {"MVL20": 15, "MVL22": 15},
"MVL22": {"MVL21": 15, "MVL23": 15},
"MVL23": {"MVL22": 15},
"MVR01": {"MVR02": 15, "MVR03": 15},
"MVR02": {"MVR01": 15, "MVR03": 15},
"MVR03": {"MVR01": 15, "MVR02": 15, "MVR04": 15},
"MVR04": {"MVR03": 15, "MVR05": 15},
"MVR05": {"MVR04": 15, "MVR06": 15, "hmc": 30},
"MVR06": {"MVR05": 15, "MVR07": 15},
"MVR07": {"MVR06": 15, "MVR08": 15, "hmc": 133},
"MVR08": {"DD1": 2, "MVL09": 2, "MVR07": 15, "MVR09": 15, "hmc": 87},
"MVR09": {"MVR08": 15, "MVR10": 15},
"MVR10": {"MVR09": 15, "MVR11": 15},
"MVR11": {"MVR10": 15, "MVR12": 15},
"MVR12": {"MVR11": 15, "MVR13": 15},
"MVR13": {"MVR12": 15, "MVR14": 15},
"MVR14": {"MVR13": 15, "MVR15": 15},
"MVR15": {"MVR14": 15, "MVR16": 15},
"MVR16": {"MVR15": 15, "MVR17": 15},
"MVR17": {"MVR16": 15, "MVR18": 15},
"MVR18": {"MVR17": 15, "MVR19": 15},
"MVR19": {"MVR18": 15, "MVR20": 15},
"MVR20": {"MVR19": 15, "MVR21": 15},
"MVR21": {"MVR20": 15, "MVR22": 15},
"MVR22": {"MVR21": 15, "MVR23": 15},
"MVR23": {"MVR22": 15, "MVR24": 15},
"MVR24": {"MVR23": 15},
"NSML": {"I1L": 3, "NSMR": 2},
"NSMR": {"I1R": 2, "I2R": 2, "M3L": 1, "M3R": 2, "NSML": 2, "pm5D": 2},
"OLLL": {"IL2L": 2, "OLLR": 11, "RIGL": 3},
"OLLR": {"OLLL": 11, "RIGR": 5},
"OLQDL": {"CEPDL": 2, "RIBL": 5, "RIGL": 3, "RMDVL": 1, "URBL": 3},
"OLQDR": {"CEPDR": 8, "RIBR": 5, "RIGR": 4, "RIH": 2, "RMDVR": 1, "URBR": 7},
"OLQVL": {"ADAL": 4, "CEPVL": 4, "RIBL": 2, "RIGL": 2, "RMDDL": 3},
"OLQVR": {"CEPVR": 1, "RIBR": 6, "RIGR": 6, "RMDDR": 1, "RMDVL": 2, "RMHR": 1, "URBR": 5},
"PDA": {"AVL": 3, "DA8": 1, "DA9": 9, "DD6": 1, "DVA": 1, "PDB": 5, "PHAR": 1, "PVQR": 1},
"PDB": {"AS11": 4, "AVJL": 2, "DB7": 2, "DD6": 2, "PDA": 5, "PVPL": 1, "PVR": 13, "RID": 2, "VD13": 4},
"PDEL": {"AVKR": 1, "DVA": 3, "PDER": 25, "PLML": 2, "PLMR": 4, "PVCL": 2, "PVM": 11, "PVR": 8, "VB10": 1, "VD6": 2},
"PDER": {"AVKL": 1, "DVA": 6, "PDEL": 25, "PLML": 3, "PLMR": 2, "PVCL": 1, "PVCR": 2, "PVDR": 1, "PVM": 8, "PVR": 9, "VB10": 4, "VB9": 7, "VD9": 5},
"PHAL": {"AVG": 3, "AVHL": 1, "PHAR": 7, "PHCL": 1, "PLNL": 1, "PVPR": 7},
"PHAR": {"AVG": 2, "AVHR": 2, "PDA": 1, "PHAL": 7, "PHCR": 1, "PLNR": 6, "PVPL": 15, "PVR": 2},
"PHBL": {"AVAR": 1, "AVHL": 1, "AVHR": 2, "AVJR": 1, "PHBR": 17, "PLNL": 1, "PVCL": 3, "PVQL": 3},
"PHBR": {"AVHL": 10, "AVHR": 2, "PHBL": 17, "PHCR": 1, "PVPL": 1, "PVT": 1},
"PHCL": {"AVAL": 1, "PHAL": 1, "PHCR": 2, "PLNL": 2, "VA12": 1},
"PHCR": {"AVAL": 3, "AVAR": 1, "AVG": 1, "AVJR": 1, "DA9": 7, "PHAR": 1, "PHBR": 1, "PHCL": 2, "PVCR": 5},
"PLML": {"AVAL": 2, "AVAR": 3, "AVDL": 3, "AVDR": 2, "LUAL": 8, "PDEL": 2, "PDER": 3, "PVCL": 4, "PVR": 15},
"PLMR": {"AVAL": 1, "LUAR": 9, "PDEL": 4, "PDER": 2, "PLNR": 1, "PVCR": 8, "PVR": 3},
"PLNL": {"PHAL": 1, "PHBL": 1, "PHCL": 2},
"PLNR": {"PHAR": 6, "PLMR": 1, "VA2": 2},
"PQR": {"AVAR": 17, "AVDL": 2, "AVDR": 3, "AVJL": 5, "AVJR": 2, "PVCL": 2, "PVNL": 3, "PVNR": 2, "PVPL": 16, "PVPR": 10},
"PVCL": {"AVAL": 5, "AVAR": 10, "AVFL": 1, "AVJL": 3, "AVJR": 3, "DA4": 1, "DA7": 1, "DA8": 17, "DB7": 8, "DD6": 1, "DVA": 3, "LUAL": 1, "PDEL": 2, "PDER": 1, "PHBL": 3, "PLML": 4, "PQR": 2, "PVCR": 67, "PVNL": 2, "PVWL": 4, "VA12": 18, "VB10": 2, "VB11": 4, "VD13": 1},
"PVCR": {"AVAL": 15, "AVAR": 22, "AVDR": 2, "AVJL": 19, "AVJR": 1, "DA7": 3, "DA9": 3, "DB7": 2, "DVA": 1, "PDER": 2, "PHCR": 5, "PLMR": 8, "PVCL": 67, "PVDL": 1, "PVDR": 2, "PVR": 19, "PVT": 4, "PVWL": 10, "PVWR": 10, "SIBDR": 1, "SIBVL": 1, "SIBVR": 1, "VA11": 3, "VA12": 8, "VA9": 3, "VB10": 1, "VB11": 2},
"PVDL": {"ALA": 250, "AVAR": 4, "AVG": 1, "CANL": 100, "DA3": 1, "DA5": 1, "DB1": 1, "PVCR": 1, "PVDR": 3, "VA10": 1, "hmc": 400},
"PVDR": {"ALA": 250, "AS3": 1, "AVAL": 6, "CANR": 100, "DVC": 1, "PDER": 1, "PVCR": 2, "PVDL": 3, "VD9": 1, "hmc": 400},
"PVM": {"ADER": 1, "AVKL": 1, "DB3": 2, "DVA": 1, "PDEL": 11, "PDER": 8, "PVM": 1, "PVR": 1, "VD9": 1},
"PVNL": {"AVAL": 1, "AVBR": 7, "AVDR": 1, "AVHL": 1, "AVJL": 5, "AVJR": 1, "BDUL": 1, "LUAL": 3, "PQR": 3, "PVCL": 2, "PVNR": 2, "PVPL": 2, "PVT": 2},
"PVNR": {"AVBL": 5, "AVBR": 2, "AVDL": 1, "AVDR": 1, "AVFL": 1, "AVJR": 5, "DVC": 1, "HSNL": 2, "HSNR": 2, "LUAR": 2, "PQR": 2, "PVNL": 2, "PVPR": 2, "PVR": 5, "PVT": 3, "PVWR": 6, "VD13": 1},
"PVPL": {"AIBR": 2, "AQR": 41, "AS11": 6, "AVAL": 1, "AVFL": 2, "AVFR": 3, "AVG": 3, "AVHR": 4, "AVKL": 3, "AVKR": 22, "AVL": 1, "DD6": 2, "DVA": 1, "DVB": 4, "DVC": 20, "HSNL": 1, "MVL19": 2, "PDB": 1, "PHAR": 15, "PHBR": 1, "PQR": 16, "PVNL": 2, "PVPL": 1, "PVPR": 2, "PVQL": 8, "PVT": 14, "RIGL": 2, "VA12": 1, "VD13": 11},
"PVPR": {"AQR": 61, "AVAL": 2, "AVEL": 1, "AVHL": 6, "AVHR": 3, "AVJL": 1, "AVKL": 6, "AVL": 8, "DD6": 9, "DVB": 4, "DVC": 34, "HSNR": 1, "PHAL": 7, "PQR": 10, "PVNR": 2, "PVPL": 2, "PVT": 17, "PVWL": 1, "RMGR": 3, "VC1": 1, "VD12": 35},
"PVQL": {"ADAL": 4, "ASJL": 1, "ASKL": 8, "AVFR": 2, "AVHR": 3, "AVKR": 2, "DA8": 1, "PHBL": 3, "PVPL": 8, "PVQR": 46},
"PVQR": {"ADAR": 2, "ADER": 2, "ASER": 1, "ASJR": 5, "ASKR": 25, "AVFL": 5, "AVHR": 2, "DVB": 1, "DVC": 7, "PDA": 1, "PVQL": 46, "PVT": 1, "PVWR": 1},
"PVR": {"ALML": 3, "ALMR": 3, "ALNR": 16, "AVM": 4, "BDUR": 3, "DA9": 15, "DB7": 4, "DVA": 15, "LUAL": 6, "LUAR": 9, "PDB": 13, "PDEL": 8, "PDER": 9, "PHAR": 2, "PLML": 15, "PLMR": 3, "PVCR": 19, "PVM": 1, "PVNR": 5, "PVWR": 2, "VD13": 1},
"PVT": {"AIBR": 1, "AVAR": 2, "AVDL": 1, "AVG": 4, "AVJL": 1, "AVKL": 5, "AVKR": 1, "AVL": 6, "DD6": 3, "DVA": 8, "DVB": 3, "DVC": 11, "LUAR": 4, "PHBR": 1, "PVCR": 4, "PVNL": 2, "PVNR": 3, "PVPL": 14, "PVPR": 17, "PVQR": 1, "PVWR": 2, "RMEV": 1, "URAVL": 1, "VC2": 1, "VC3": 1, "VC5": 2, "VC6": 2, "VD11": 3, "VD12": 4, "VD13": 17},
"PVWL": {"AVJL": 3, "LUAR": 3, "PVCL": 4, "PVCR": 10, "PVPR": 1, "PVWR": 2, "VD13": 1},
"PVWR": {"AVAR": 2, "AVDR": 1, "AVJL": 5, "AVL": 3, "LUAR": 3, "PVCR": 10, "PVNR": 6, "PVQR": 1, "PVR": 2, "PVT": 2, "PVWL": 2, "VD13": 2},
"RIAL": {"ADFL": 1, "AINR": 2, "RIBL": 1, "SMDVL": 4},
"RIAR": {"RMDDL": 1, "RMDDR": 1, "SAAVR": 1, "SIAVL": 1, "SIAVR": 1, "SMDDL": 1, "SMDVR": 1},
"RIBL": {"AVBL": 6, "AVBR": 3, "OLQDL": 5, "OLQVL": 2, "RIAL": 1, "RIBL": 3, "RIBR": 15, "RIGL": 3, "RMEV": 2, "SIADL": 2, "SIAVL": 1, "SIBDL": 5, "SIBVR": 2, "SMDDL": 3},
"RIBR": {"AVBL": 2, "AVBR": 3, "OLQDR": 5, "OLQVR": 6, "RIBL": 15, "RIBR": 5, "RIGR": 2, "SIADR": 3, "SIAVR": 2, "SIBDR": 2, "SIBVR": 6, "SMBDR": 2, "SMDDL": 4, "SMDDR": 2},
"RICL": {"ASHL": 5, "AVKR": 4, "AWBR": 4},
"RICR": {"AIBR": 1, "ASHR": 4, "AVKL": 2, "RMHR": 1, "URXR": 1},
"RID": {"ALA": 4, "AS11": 1, "AVBL": 2, "AVBR": 7, "DA9": 1, "DB1": 2, "DB3": 1, "PDB": 2, "RID": 5},
"RIFL": {"AVDL": 1, "AVER": 1, "HSNL": 1, "VD1": 1},
"RIFR": {"AVG": 3, "AVJL": 1, "DD1": 2, "RMGR": 1},
"RIGL": {"AIBR": 3, "AIZL": 1, "AVKL": 2, "BAGL": 1, "OLLL": 3, "OLQDL": 3, "OLQVL": 2, "PVPL": 2, "RIBL": 3, "RIGR": 81, "RMEL": 2, "RMFL": 1, "URYDL": 4, "URYVL": 3, "VD1": 3},
"RIGR": {"ADEL": 1, "AIBL": 3, "AQR": 3, "AVKL": 1, "AVKR": 2, "BAGL": 2, "OLLR": 5, "OLQDR": 4, "OLQVR": 6, "RIBR": 2, "RIGL": 81, "RMFL": 1, "URYDR": 3, "VD1": 2},
"RIH": {"ADFR": 1, "AIZL": 1, "CEPVL": 1, "FLPL": 1, "OLQDR": 2},
"RIML": {"AIBR": 2, "AIYL": 5, "AVAR": 8, "AVEL": 10, "AVER": 9, "RIS": 2, "RMDL": 1, "RMFL": 3, "SIADL": 1},
"RIMR": {"AIBL": 1, "AIYR": 3, "AVAL": 11, "AVAR": 2, "AVEL": 7, "AVER": 11, "AVKR": 1, "RIS": 2, "SIADR": 1},
"RIPL": {"ADFL": 2, "I1L": 2, "IL1L": 1, "RIPL": 4, "RIPR": 2, "RMED": 2, "URAVL": 1},
"RIPR": {"GLRL": 5, "GLRR": 5, "I1R": 2, "RIPL": 2, "RMED": 4},
"RIR": {"BAGL": 4, "BAGR": 5},
"RIS": {"AIBL": 1, "AIBR": 3, "AVEL": 3, "AVJL": 15, "RIML": 2, "RIMR": 2, "RMDR": 1, "RMEV": 1, "SMDDL": 2, "SMDDR": 5, "SMDVL": 2},
"RIVL": {"AIBL": 1, "RIVR": 28, "SAADR": 2, "SDQR": 5, "SIBDR": 1, "SMDVL": 2},
"RIVR": {"AIBR": 3, "RIVL": 28, "SAADL": 1, "SDQR": 3, "SMDVR": 8},
"RMDDL": {"AVER": 2, "IL1VL": 1, "OLQVL": 3, "RIAR": 1, "RMDL": 1, "RMDVL": 2, "SIBVR": 2, "SMDDL": 3},
"RMDDR": {"ADEL": 1, "ALML": 2, "OLQVR": 1, "RIAR": 1, "RMDL": 1, "RMDVR": 5, "RMGL": 1, "SAADR": 1, "SIADL": 1, "SMDDR": 1},
"RMDL": {"IL2L": 2, "RIML": 1, "RMDDL": 1, "RMDDR": 1, "RMDVL": 1, "RMER": 1, "SIAVR": 1, "SIBVL": 2, "SMDDL": 2},
"RMDR": {"AVAR": 2, "AVER": 5, "RIS": 1, "RMDVR": 1},
"RMDVL": {"AUAL": 2, "AVER": 1, "OLQDL": 1, "OLQVR": 2, "RMDDL": 2, "RMDL": 1, "SAAVL": 3, "SIAVR": 1, "SIBVR": 1, "SMDVL": 5},
"RMDVR": {"AFDR": 1, "AVAR": 1, "AVEL": 2, "AVER": 7, "IL1DR": 1, "OLQDR": 1, "RMDDR": 5, "RMDR": 1, "SAADL": 1, "SAAVR": 9, "SIAVL": 1, "SMDVR": 8},
"RMED": {"AIBL": 2, "CEPshVR": 6, "GLRDL": 9, "GLRDR": 9, "IL1VL": 3, "IL2DR": 1, "RIPL": 2, "RIPR": 4, "RMEV": 6},
"RMEL": {"GLRDR": 10, "GLRL": 10, "RIGL": 2, "RMEV": 4},
"RMER": {"ADEL": 1, "GLRL": 10, "GLRR": 10, "IL1L": 1, "IL2L": 2, "RMDL": 1, "RMEV": 1},
"RMEV": {"AVEL": 1, "AVER": 1, "GLRR": 9, "GLRVL": 17, "GLRVR": 17, "IL1DL": 1, "IL1DR": 4, "PVT": 1, "RIBL": 2, "RIS": 1, "RMED": 6, "RMEL": 4, "RMER": 1, "SMDVL": 1},
"RMFL": {"RIGL": 1, "RIGR": 1, "RIML": 3, "SAADR": 1, "SAAVR": 1},
"RMGL": {"ADLL": 3, "ALML": 3, "ASHL": 3, "AVEL": 2, "AVFR": 1, "AWBL": 1, "IL2L": 5, "RMDDR": 1, "RMHL": 6, "URXL": 3},
"RMGR": {"ALNR": 1, "ASHR": 3, "ASKR": 1, "AWBR": 1, "IL2R": 1, "PVPR": 3, "RIFR": 1, "RMHL": 1, "RMHR": 4, "SMBVR": 3, "URXR": 5},
"RMHL": {"RMGL": 6, "RMGR": 1, "SIBVR": 3, "SMDDL": 1},
"RMHR": {"OLQVR": 1, "RICR": 1, "RMGR": 4},
"SAADL": {"RIVR": 1, "RMDVR": 1, "SDQR": 1, "SMBDL": 3},
"SAADR": {"RIVL": 2, "RMDDR": 1, "RMFL": 1},
"SAAVL": {"RMDVL": 3, "SAAVR": 1, "SMBDR": 2, "SMBVR": 17, "SMDVL": 8},
"SAAVR": {"AVAR": 1, "DVA": 1, "RIAR": 1, "RMDVR": 9, "RMFL": 1, "SAAVL": 1, "SMBDL": 1, "SMBVL": 16, "SMDDL": 4, "VB1": 1},
"SABD": {"AVAL": 7, "VA2": 12, "VA3": 2, "VB1": 3},
"SABVL": {"AVAR": 15},
"SABVR": {"AVAL": 8, "AVAR": 2, "DA1": 1, "DD1": 1},
"SDQL": {"DVA": 1, "FLPL": 1, "SDQR": 2, "SIADR": 1},
"SDQR": {"AIBL": 1, "ALMR": 2, "AVBL": 1, "DVA": 1, "RIVL": 5, "RIVR": 3, "SAADL": 1, "SDQL": 2, "SIAVR": 1, "SIBVL": 2},
"SIADL": {"AVDR": 1, "RIBL": 2, "RIML": 1, "RMDDR": 1, "SMBDL": 2},
"SIADR": {"AIBL": 1, "DVA": 1, "FLPL": 1, "RIBR": 3, "RIMR": 1, "SDQL": 1, "SMBDR": 3, "SMDDR": 1},
"SIAVL": {"AIBR": 1, "AVHR": 1, "RIAR": 1, "RIBL": 1, "RMDVR": 1, "SIBDL": 2, "SIBVL": 2},
"SIAVR": {"DVA": 1, "RIAR": 1, "RIBR": 2, "RMDL": 1, "RMDVL": 1, "SDQR": 1},
"SIBDL": {"ADEL": 1, "AVAR": 1, "AVDR": 1, "RIBL": 5, "SIAVL": 2, "SIBVL": 8, "SMBDL": 1, "SMBVL": 3, "SMDDL": 3},
"SIBDR": {"AIML": 2, "PVCR": 1, "RIBR": 2, "RIVL": 1, "SIBVR": 10, "SMBVR": 1},
"SIBVL": {"ADEL": 1, "AVBL": 2, "AVBR": 4, "PVCR": 1, "RMDL": 2, "SDQR": 2, "SIAVL": 2, "SIBDL": 8, "SIBVR": 1, "SMBVL": 2},
"SIBVR": {"AVBR": 1, "PVCR": 1, "RIBL": 2, "RIBR": 6, "RMDDL": 2, "RMDVL": 1, "RMHL": 3, "SIBDR": 10, "SIBVL": 1, "SMBDL": 1},
"SMBDL": {"AVKL": 2, "AVKR": 1, "SAADL": 3, "SAAVR": 1, "SIADL": 2, "SIBDL": 1, "SIBVR": 1},
"SMBDR": {"ALML": 1, "ALNL": 3, "AVKL": 2, "AVKR": 9, "RIBR": 2, "SAAVL": 2, "SIADR": 3, "SMBVR": 2, "SMDDR": 1},
"SMBVL": {"AVKL": 6, "SAAVR": 16, "SIBDL": 3, "SIBVL": 2},
"SMBVR": {"ADFR": 1, "AIMR": 1, "AVKL": 2, "AVKR": 6, "RMGR": 3, "SAAVL": 17, "SIBDR": 1, "SMBDR": 2, "URBR": 1},
"SMDDL": {"AIBR": 2, "ALNR": 1, "RIAR": 1, "RIBL": 3, "RIBR": 4, "RIS": 2, "RMDDL": 3, "RMDL": 2, "RMHL": 1, "SAAVR": 4, "SIBDL": 3},
"SMDDR": {"AIBL": 1, "ALNL": 2, "ASGL": 2, "ASJL": 1, "AVER": 1, "RIBR": 2, "RIS": 5, "RMDDR": 1, "SIADR": 1, "SMBDR": 1, "SMDVL": 1, "VD1": 5},
"SMDVL": {"ALNL": 1, "RIAL": 4, "RIS": 2, "RIVL": 2, "RMDVL": 5, "RMEV": 1, "SAAVL": 8, "SMDDR": 1, "VB1": 6},
"SMDVR": {"ADFR": 2, "AVEL": 1, "RIAR": 1, "RIVR": 8, "RMDVR": 8},
"URADL": {"IL2DL": 1},
"URADR": {"IL2DR": 1, "URYDR": 1},
"URAVL": {"CEPVL": 3, "IL2L": 1, "IL2VL": 3, "PVT": 1, "RIPL": 1},
"URAVR": {"IL1VR": 4},
"URBL": {"ADFL": 1, "AFDL": 9, "IL1L": 2, "IL2L": 4, "OLQDL": 3},
"URBR": {"AFDR": 2, "IL2R": 4, "OLQDR": 7, "OLQVR": 5, "SMBVR": 1},
"URXL": {"IL2L": 1, "RMGL": 3},
"URXR": {"AUAR": 3, "IL2R": 4, "RICR": 1, "RMGR": 5},
"URYDL": {"AVAL": 2, "RIGL": 4},
"URYDR": {"AVAR": 5, "RIGR": 3, "URADR": 1},
"URYVL": {"AVAR": 1, "RIGL": 3},
"URYVR": {"AVAL": 2},
"VA1": {"AVAL": 5, "AVAR": 7, "DA2": 9},
"VA10": {"AVAL": 6, "AVAR": 4, "AVDL": 1, "DA8": 2, "DB7": 1, "PVDL": 1},
"VA11": {"AVAL": 2, "AVAR": 16, "DA9": 3, "DVA": 1, "PVCR": 3, "VA12": 1, "VB10": 3},
"VA12": {"AS10": 3, "AVAR": 3, "DA8": 6, "DA9": 1, "DD6": 7, "PHCL": 1, "PVCL": 18, "PVCR": 8, "PVPL": 1, "VA11": 1, "VB11": 7, "VD12": 8, "VD13": 6},
"VA2": {"AVAL": 13, "DA3": 1, "PLNR": 2, "SABD": 12, "VA6": 1, "VD2": 1},
"VA3": {"AS1": 3, "AS2": 2, "AVAL": 6, "AVAR": 3, "DA4": 1, "SABD": 2, "VD3": 1},
"VA4": {"AS2": 9, "AVAL": 6, "AVAR": 3, "VA7": 1, "VB3": 1},
"VA5": {"AS1": 3, "AVAR": 5, "DA2": 3},
"VA6": {"AVAL": 13, "DA3": 1, "VA2": 1},
"VA7": {"AVAL": 2, "AVAR": 5, "VA4": 1},
"VA8": {"AVAL": 2, "AVAR": 2},
"VA9": {"AVAL": 5, "AVAR": 5, "PVCR": 3, "VB8": 3},
"VB1": {"AVBL": 1, "AVFR": 1, "DB2": 1, "SAAVR": 1, "SABD": 3, "SMDVL": 6, "VB2": 2},
"VB10": {"AVBL": 4, "AVKL": 1, "PDEL": 1, "PDER": 4, "PVCL": 2, "PVCR": 1, "VA11": 3, "VB9": 5, "VD11": 1, "VD12": 1},
"VB11": {"AS11": 1, "AVAL": 2, "AVBL": 5, "AVBR": 6, "AVKL": 1, "DA9": 1, "PVCL": 4, "PVCR": 2, "VA12": 7, "VD12": 1},
"VB2": {"AVBL": 14, "AVBR": 6, "VB1": 2, "VB3": 10, "VB4": 1, "VB7": 1},
"VB3": {"AVBR": 7, "DB1": 5, "VA4": 1, "VB2": 10, "VB4": 1},
"VB4": {"AVBL": 3, "AVBR": 5, "DB2": 1, "VB2": 1, "VB3": 1, "VB5": 1},
"VB5": {"AVBL": 3, "AVBR": 3, "VB4": 1, "VB6": 5},
"VB6": {"AVBL": 3, "AVBR": 4, "DB3": 1, "VB5": 5, "VB7": 5},
"VB7": {"AVBL": 4, "AVBR": 3, "DB4": 1, "VB2": 1, "VB6": 5, "VB8": 5},
"VB8": {"AVBL": 4, "AVBR": 4, "VA9": 3, "VB7": 5, "VB9": 5},
"VB9": {"AVBL": 4, "AVBR": 4, "PDER": 7, "VB10": 5, "VB8": 5},
"VC1": {"DD1": 1, "PVPR": 1, "VC2": 12, "VC3": 7, "VD1": 1},
"VC2": {"DD4": 2, "PVT": 1, "VC1": 12, "VC2": 1, "VC3": 3, "VD1": 1},
"VC3": {"DD4": 2, "PVT": 1, "VC1": 7, "VC2": 3, "VC4": 4, "vm2AL": 2, "vm2AR": 2, "vm2PL": 2, "vm2PR": 2},
"VC4": {"AVFL": 1, "AVFR": 1, "VC3": 4, "VC5": 4},
"VC5": {"AVFL": 1, "AVFR": 1, "DVC": 1, "PVT": 2, "VC4": 4, "VC5": 4, "VC6": 4},
"VC6": {"DVC": 1, "PVT": 2, "VC5": 4},
"VD1": {"DD1": 1, "DVC": 2, "RIFL": 1, "RIGL": 3, "RIGR": 2, "SMDDR": 5, "VC1": 1, "VC2": 1, "VD2": 4},
"VD10": {"DD5": 2, "VD11": 6, "VD9": 6},
"VD11": {"AVAR": 1, "AVL": 1, "DD5": 1, "DD6": 3, "DVC": 1, "PVT": 3, "VB10": 1, "VD10": 6, "VD12": 6},
"VD12": {"AVFL": 3, "AVHL": 8, "AVHR": 13, "AVL": 2, "DD6": 14, "PVPR": 35, "PVT": 4, "VA12": 8, "VB10": 1, "VB11": 1, "VD11": 6, "VD13": 6},
"VD13": {"AVL": 5, "DA9": 2, "DD6": 2, "DVB": 5, "DVC": 1, "PDB": 4, "PVCL": 1, "PVNR": 1, "PVPL": 11, "PVR": 1, "PVT": 17, "PVWL": 1, "PVWR": 2, "VA12": 6, "VD12": 6},
"VD2": {"DD1": 3, "MDL09": 1, "VA2": 1, "VD1": 4, "VD2": 3, "VD3": 7},
"VD3": {"DD1": 4, "DD2": 1, "VA3": 1, "VD2": 7, "VD4": 6},
"VD4": {"DD2": 2, "VD3": 6, "VD5": 1},
"VD5": {"DD2": 1, "DD3": 1, "VD4": 1, "VD6": 10},
"VD6": {"DD3": 2, "PDEL": 2, "VD5": 10, "VD7": 15},
"VD7": {"DD3": 1, "DD4": 1, "VD6": 15, "VD8": 6},
"VD8": {"DD4": 2, "VD7": 6, "VD9": 6},
"VD9": {"DD4": 1, "DD5": 1, "PDER": 5, "PVDR": 1, "PVM": 1, "VD10": 6, "VD8": 6},
"e2D": {"e3D": 2},
"e2VL": {"e3VL": 1},
"e2VR": {"e3D": 1, "e3VR": 1},
"e3D": {"e2D": 2, "e2VR": 1, "pm1": 4},
"e3VL": {"I2L": 2, "e2VL": 1, "pm3VL": 4},
"e3VR": {"I2R": 1, "e2VR": 1},
"exc_cell": {"ALA": 100, "CANL": 200, "CANR": 200},
"exc_gl": {"ADFL": 1, "ALA": 1, "hmc": 118},
"g1AL": {"I5": 4, "M2L": 2, "M3L": 2, "M4": 7},
"g1AR": {"I5": 2, "M2R": 2, "M3R": 5, "M4": 2},
"hmc": {"MDL07": 153, "MDL08": 244, "MDL09": 4, "MDR07": 123, "MDR08": 174, "MVL05": 98, "MVL07": 68, "MVL08": 19, "MVR05": 30, "MVR07": 133, "MVR08": 87, "PVDL": 400, "PVDR": 400, "exc_gl": 118},
"hyp": {"ADFR": 2, "ADLL": 1, "ALNL": 3, "AS10": 7, "AS11": 31, "ASER": 1, "AVAL": 3, "AVAR": 4, "AVBR": 5, "AVDL": 3, "AVEL": 2, "AVFL": 8, "AVFR": 3, "AVG": 6, "AVHL": 35, "AVHR": 11, "AVJL": 3, "AVJR": 3, "AVKL": 1, "AVKR": 34, "CANL": 140, "CANR": 140, "DA8": 1, "DA9": 1, "DB7": 1, "DVA": 4, "DVC": 2, "PDA": 2, "PDB": 11, "PHAL": 1, "PHAR": 1, "PHBL": 3, "PHBR": 4, "PHCL": 1, "PLML": 3, "PLNR": 2, "PQR": 1, "PVCL": 4, "PVCR": 3, "PVDL": 400, "PVDR": 400, "PVNL": 2, "PVPL": 47, "PVPR": 4, "PVQL": 3, "PVR": 12, "PVT": 1, "PVWL": 6, "PVWR": 4, "RID": 4, "SMDDR": 1, "VA10": 2, "VA11": 1, "VA2": 1, "VB11": 1, "VD12": 5, "mu_anal": 4, "mu_intR": 4, "mu_sph": 4},
"mc1DL": {"mc2DL": 2, "pm3D": 2, "pm3VL": 2, "pm4D": 2, "pm4VL": 2},
"mc1DR": {"mc2DR": 2, "pm3D": 2, "pm4D": 2, "pm4VR": 4},
"mc1V": {"pm3VL": 2, "pm3VR": 2, "pm4VL": 2, "pm4VR": 2},
"mc2DL": {"mc1DL": 2, "mc3DL": 2, "pm5D": 2, "pm5VL": 2},
"mc2DR": {"mc1DR": 2, "mc3DR": 2, "pm5D": 2, "pm5VR": 2},
"mc2V": {"pm5VL": 2, "pm5VR": 2},
"mc3DL": {"mc2DL": 2, "pm6D": 2, "pm6VL": 2, "pm7D": 2, "pm7VL": 2, "pm8": 2},
"mc3DR": {"mc2DR": 2, "pm6D": 2, "pm6VR": 2, "pm7D": 2, "pm7VR": 2, "pm8": 2},
"mc3V": {"pm6VL": 2, "pm6VR": 2, "pm7VL": 2, "pm7VR": 2, "pm8": 2},
"mu_anal": {"mu_anal": 4, "mu_intL": 4, "mu_intR": 4},
"mu_intL": {"mu_anal": 4, "mu_intL": 4, "mu_intR": 4, "mu_sph": 4},
"mu_intR": {"mu_anal": 4, "mu_intL": 4, "mu_intR": 4, "mu_sph": 4},
"mu_sph": {"mu_intL": 4, "mu_intR": 4},
"pm1": {"e3D": 4, "pm2D": 2, "pm2VL": 2, "pm2VR": 2},
"pm2D": {"pm1": 2, "pm3D": 2},
"pm2VL": {"pm1": 2, "pm3VL": 2},
"pm2VR": {"pm1": 2, "pm3VR": 2},
"pm3D": {"mc1DL": 2, "mc1DR": 2, "pm2D": 2, "pm4D": 2},
"pm3VL": {"e3VL": 4, "mc1DL": 2, "mc1V": 2, "pm2VL": 2, "pm4VL": 2},
"pm3VR": {"I1R": 3, "mc1V": 2, "pm2VR": 2, "pm4VR": 2},
"pm4D": {"I3": 3, "M3L": 2, "MI": 3, "mc1DL": 2, "mc1DR": 2, "pm3D": 2, "pm5D": 2},
"pm4VL": {"I1L": 1, "M2L": 1, "mc1DL": 2, "mc1V": 2, "pm3VL": 2, "pm5VL": 2},
"pm4VR": {"I1R": 2, "M3R": 1, "mc1DR": 4, "mc1V": 2, "pm3VR": 2, "pm5VR": 2},
"pm5D": {"I3": 1, "M1": 3, "M2R": 1, "M3L": 1, "M3R": 1, "M4": 1, "NSMR": 2, "mc2DL": 2, "mc2DR": 2, "pm4D": 2, "pm6D": 2},
"pm5VL": {"I4": 1, "M2L": 1, "M3L": 1, "M4": 1, "M5": 2, "mc2DL": 2, "mc2V": 2, "pm4VL": 2, "pm6VL": 2},
"pm5VR": {"M3R": 1, "M4": 1, "mc2DR": 2, "mc2V": 2, "pm4VR": 2, "pm6VR": 2},
"pm6D": {"mc3DL": 2, "mc3DR": 2, "pm5D": 2},
"pm6VL": {"M5": 2, "mc3DL": 2, "mc3V": 2, "pm5VL": 2},
"pm6VR": {"M5": 2, "mc3DR": 2, "mc3V": 2, "pm5VR": 2},
"pm7D": {"mc3DL": 2, "mc3DR": 2, "pm8": 2},
"pm7VL": {"mc3DL": 2, "mc3V": 2, "pm8": 2},
"pm7VR": {"mc3DR": 2, "mc3V": 2, "pm8": 2},
"pm8": {"mc3DL": 2, "mc3DR": 2, "mc3V": 2, "pm7D": 2, "pm7VL": 2, "pm7VR": 2},
"um1AL": {"um1AR": 4, "um1PL": 4, "um2AL": 4, "vm2AL": 4},
"um1AR": {"um1AL": 4, "um1PR": 4, "um2AR": 4, "vm2AR": 4},
"um1PL": {"um1AL": 4, "um1PR": 4, "um2PL": 4, "vm2PL": 4},
"um1PR": {"um1AR": 4, "um1PL": 4, "um2PR": 4, "vm2PR": 4},
"um2AL": {"um1AL": 4, "um2AR": 4},
"um2AR": {"um1AR": 4, "um2AL": 4},
"um2PL": {"um1PL": 4, "um2PR": 4},
"um2PR": {"um1PR": 4, "um2PL": 4},
"vm1AL": {"vm1AR": 4, "vm1PL": 4, "vm2AL": 4},
"vm1AR": {"vm1AL": 4, "vm1PR": 4, "vm2AR": 4},
"vm1PL": {"vm1AL": 4, "vm1PR": 4, "vm2PL": 4},
"vm1PR": {"vm1AR": 4, "vm1PL": 4, "vm2PR": 4},
"vm2AL": {"VC3": 2, "um1AL": 4, "vm1AL": 4, "vm2AR": 4},
"vm2AR": {"VC3": 2, "um1AR": 4, "vm1AR": 4, "vm2AL": 4},
"vm2PL": {"VC3": 2, "um1PL": 4, "vm1PL": 4, "vm2PR": 4},
"vm2PR": {"VC3": 2, "um1PR": 4, "vm1PR": 4, "vm2PL": 4}
}
